…
### **q5** Create *at least* three new figures below. With each figure, try to pose new questions about the data.

``` r
top_countries <- gapminder %>% 
  filter(year == year_max) %>% 
  arrange(desc(gdpPercap)) %>% 
  group_by(continent) %>% 
  slice(1:2) %>% 
  pull(country)
df_q5 <- gapminder %>% 
  filter(country %in% top_countries)
df_q5
```

    ## # A tibble: 120 × 6
    ##    country   continent  year lifeExp      pop gdpPercap
    ##    <fct>     <fct>     <int>   <dbl>    <int>     <dbl>
    ##  1 Australia Oceania    1952    69.1  8691212    10040.
    ##  2 Australia Oceania    1957    70.3  9712569    10950.
    ##  3 Australia Oceania    1962    70.9 10794968    12217.
    ##  4 Australia Oceania    1967    71.1 11872264    14526.
    ##  5 Australia Oceania    1972    71.9 13177000    16789.
    ##  6 Australia Oceania    1977    73.5 14074100    18334.
    ##  7 Australia Oceania    1982    74.7 15184200    19477.
    ##  8 Australia Oceania    1987    76.3 16257249    21889.
    ##  9 Australia Oceania    1992    77.6 17481977    23425.
    ## 10 Australia Oceania    1997    78.8 18565243    26998.
    ## # … with 110 more rows
…
