…
    ## New names:
    ## • `` -> `...7`

``` r
df_pop
```

    ## # A tibble: 3,220 × 4
    ##    id             county_name              population error
    ##    <chr>          <chr>                         <dbl> <dbl>
    ##  1 0500000US01001 Autauga County, Alabama       55200    NA
    ##  2 0500000US01003 Baldwin County, Alabama      208107    NA
    ##  3 0500000US01005 Barbour County, Alabama       25782    NA
    ##  4 0500000US01007 Bibb County, Alabama          22527    NA
    ##  5 0500000US01009 Blount County, Alabama        57645    NA
    ##  6 0500000US01011 Bullock County, Alabama       10352    NA
    ##  7 0500000US01013 Butler County, Alabama        20025    NA
    ##  8 0500000US01015 Calhoun County, Alabama      115098    NA
    ##  9 0500000US01017 Chambers County, Alabama      33826    NA
    ## 10 0500000US01019 Cherokee County, Alabama      25853    NA
    ## # … with 3,210 more rows
…
### **q3** Process the `id` column of `df_pop` to create a `fips` column.

``` r
df_covid %>% 
  filter(
    county == "Loving",
    state == "Texas"
  )
```

    ## # A tibble: 45 × 6
    ##    date       county state fips  cases deaths
    ##    <date>     <chr>  <chr> <chr> <dbl>  <dbl>
    ##  1 2020-11-17 Loving Texas 48301     1      0
    ##  2 2020-11-18 Loving Texas 48301     1      0
    ##  3 2020-11-19 Loving Texas 48301     1      0
    ##  4 2020-11-20 Loving Texas 48301     1      0
    ##  5 2020-11-21 Loving Texas 48301     1      0
    ##  6 2020-11-22 Loving Texas 48301     1      0
    ##  7 2020-11-23 Loving Texas 48301     1      0
    ##  8 2020-11-24 Loving Texas 48301     1      0
    ##  9 2020-11-25 Loving Texas 48301     1      0
    ## 10 2020-11-26 Loving Texas 48301     1      0
    ## # … with 35 more rows
…
    ## `summarise()` has grouped output by 'fips', 'county'. You can override using
    ## the `.groups` argument.

``` r
top_cases <- sorted_cases %>% 
  slice(1:10)
top_cases
```

    ## # A tibble: 3,231 × 4
    ## # Groups:   fips, county [3,222]
    ##    fips  county   state   max_cases_per100k
    ##    <chr> <chr>    <chr>               <dbl>
    ##  1 01001 Autauga  Alabama             7591.
    ##  2 01003 Baldwin  Alabama             6536.
    ##  3 01005 Barbour  Alabama             5872.
    ##  4 01007 Bibb     Alabama             8141.
    ##  5 01009 Blount   Alabama             8051.
    ##  6 01011 Bullock  Alabama             8298.
    ##  7 01013 Butler   Alabama             7531.
    ##  8 01015 Calhoun  Alabama             8249.
    ##  9 01017 Chambers Alabama             6921.
    ## 10 01019 Cherokee Alabama             5469.
    ## # … with 3,221 more rows
…
    ## `summarise()` has grouped output by 'fips', 'county'. You can override using
    ## the `.groups` argument.

``` r
top_deaths <- sorted_deaths %>% 
  slice(1:10)
top_deaths
```

    ## # A tibble: 3,231 × 4
    ## # Groups:   fips, county [3,222]
    ##    fips  county   state   max_deaths_per100k
    ##    <chr> <chr>    <chr>                <dbl>
    ##  1 01001 Autauga  Alabama               87.0
    ##  2 01003 Baldwin  Alabama               77.4
    ##  3 01005 Barbour  Alabama              124. 
    ##  4 01007 Bibb     Alabama              204. 
    ##  5 01009 Blount   Alabama              109. 
    ##  6 01011 Bullock  Alabama              213. 
    ##  7 01013 Butler   Alabama              225. 
    ##  8 01015 Calhoun  Alabama              136. 
    ##  9 01017 Chambers Alabama              186. 
    ## 10 01019 Cherokee Alabama               92.8
    ## # … with 3,221 more rows
…
``` r
mapped_cases_and_deaths %>% 
  group_by(subregion, region, fips)
```

    ## # A tibble: 87,949 × 17
    ## # Groups:   subregion, region, fips [3,076]
    ##    fips  county.x state.x  max_c…¹ count…² state.y max_d…³ id    count…⁴ popul…⁵
    ##    <chr> <chr>    <chr>      <dbl> <chr>   <chr>     <dbl> <chr> <chr>     <dbl>
    ##  1 08025 Crowley  Colorado  29254. Crowley Colora…    213. 0500… Crowle…    5630
    ##  2 08025 Crowley  Colorado  29254. Crowley Colora…    213. 0500… Crowle…    5630
    ##  3 08025 Crowley  Colorado  29254. Crowley Colora…    213. 0500… Crowle…    5630
    ##  4 08025 Crowley  Colorado  29254. Crowley Colora…    213. 0500… Crowle…    5630
    ##  5 08025 Crowley  Colorado  29254. Crowley Colora…    213. 0500… Crowle…    5630
    ##  6 08025 Crowley  Colorado  29254. Crowley Colora…    213. 0500… Crowle…    5630
    ##  7 08025 Crowley  Colorado  29254. Crowley Colora…    213. 0500… Crowle…    5630
    ##  8 08025 Crowley  Colorado  29254. Crowley Colora…    213. 0500… Crowle…    5630
    ##  9 08025 Crowley  Colorado  29254. Crowley Colora…    213. 0500… Crowle…    5630
    ## 10 08025 Crowley  Colorado  29254. Crowley Colora…    213. 0500… Crowle…    5630
    ## # … with 87,939 more rows, 7 more variables: error <dbl>, subregion <chr>,
    ## #   region <chr>, long <dbl>, lat <dbl>, group <dbl>, order <int>, and
    ## #   abbreviated variable names ¹​max_cases_per100k, ²​county.y,
    ## #   ³​max_deaths_per100k, ⁴​county_name, ⁵​population
…
facetable_cases_pop_deaths <- summative_cases_and_deaths %>% 
  pivot_longer(
    cols = starts_with("county_"),
    names_to = "metric",
    values_to = "people"
  )
facetable_cases_pop_deaths
```

    ## # A tibble: 263,847 × 9
    ##    subregion region         fips   long   lat group order metric          people
    ##    <chr>     <chr>          <chr> <dbl> <dbl> <dbl> <int> <chr>            <dbl>
    ##  1 abbeville south carolina 45001 -82.2  34.4  2285 67181 county_pop      24657 
    ##  2 abbeville south carolina 45001 -82.2  34.4  2285 67181 county_max_cas…  5171.
    ##  3 abbeville south carolina 45001 -82.2  34.4  2285 67181 county_max_dea…   101.
    ##  4 abbeville south carolina 45001 -82.3  34.4  2285 67182 county_pop      24657 
    ##  5 abbeville south carolina 45001 -82.3  34.4  2285 67182 county_max_cas…  5171.
    ##  6 abbeville south carolina 45001 -82.3  34.4  2285 67182 county_max_dea…   101.
    ##  7 abbeville south carolina 45001 -82.3  34.3  2285 67183 county_pop      24657 
    ##  8 abbeville south carolina 45001 -82.3  34.3  2285 67183 county_max_cas…  5171.
    ##  9 abbeville south carolina 45001 -82.3  34.3  2285 67183 county_max_dea…   101.
    ## 10 abbeville south carolina 45001 -82.3  34.3  2285 67184 county_pop      24657 
    ## # … with 263,837 more rows
…
Part of this data sifting was figuring out how to parse county data from
Louisiana, which often would show up as blank because it has parishes
instead. To learn more about the data at hand, I filtered all Louisiana
“county” names and checked them here so I could update the parser in the
previous merge.

``` r
cases_and_deaths %>% 
  filter(
    region == "louisiana"
  ) %>%
  distinct(subregion)
```

    ## # A tibble: 64 × 2
    ## # Groups:   fips [64]
    ##    fips  subregion     
    ##    <chr> <chr>         
    ##  1 22035 east carroll  
    ##  2 22037 east feliciana
    ##  3 22065 madison       
    ##  4 22041 franklin      
    ##  5 22003 allen         
    ##  6 22021 caldwell      
    ##  7 22073 ouachita      
    ##  8 22013 bienville     
    ##  9 22049 jackson       
    ## 10 22077 pointe coupee 
    ## # … with 54 more rows
…
