…
    ## Rows: 3221 Columns: 7
    ## ── Column specification ────────────────────────────────────────────────────────
    ## Delimiter: ","
    ## chr (5): id, geographic_area_name, population_moe, X5, X6
    ## dbl (1): population_estimate
    ## lgl (1): X7
    ## 
    ## ℹ Use `spec()` to retrieve the full column specification for this data.
    ## ℹ Specify the column types or set `show_col_types = FALSE` to quiet this message.

``` r
df_pop
```

    ## # A tibble: 3,221 × 7
    ##    id             geographic_area_name     populatio…¹ popul…² X5    X6    X7   
    ##    <chr>          <chr>                          <dbl> <chr>   <chr> <chr> <lgl>
    ##  1 0100000US      United States              322903030 null    ***** ***** NA   
    ##  2 0500000US01001 Autauga County, Alabama        55200 null    ***** ***** NA   
    ##  3 0500000US01003 Baldwin County, Alabama       208107 null    ***** ***** NA   
    ##  4 0500000US01005 Barbour County, Alabama        25782 null    ***** ***** NA   
    ##  5 0500000US01007 Bibb County, Alabama           22527 null    ***** ***** NA   
    ##  6 0500000US01009 Blount County, Alabama         57645 null    ***** ***** NA   
    ##  7 0500000US01011 Bullock County, Alabama        10352 null    ***** ***** NA   
    ##  8 0500000US01013 Butler County, Alabama         20025 null    ***** ***** NA   
    ##  9 0500000US01015 Calhoun County, Alabama       115098 null    ***** ***** NA   
    ## 10 0500000US01017 Chambers County, Alabama       33826 null    ***** ***** NA   
    ## # … with 3,211 more rows, and abbreviated variable names ¹​population_estimate,
    ## #   ²​population_moe
…
    ## Rows: 3220 Columns: 483
    ## ── Column specification ────────────────────────────────────────────────────────
    ## Delimiter: ","
    ## chr (306): Geography, Geographic Area Name, Annotation of Margin of Error!!N...
    ## dbl (176): Estimate!!Number!!HOUSEHOLD INCOME BY RACE AND HISPANIC OR LATINO...
    ## lgl   (1): ...483
    ## 
    ## ℹ Use `spec()` to retrieve the full column specification for this data.
    ## ℹ Specify the column types or set `show_col_types = FALSE` to quiet this message.

``` r
df_income
```

    ## # A tibble: 3,220 × 483
    ##    id    Geogr…¹ Estim…² Margi…³ Annot…⁴ Annot…⁵ Estim…⁶ Margi…⁷ Annot…⁸ Annot…⁹
    ##    <chr> <chr>     <dbl>   <dbl> <chr>   <chr>     <dbl>   <dbl> <chr>   <chr>  
    ##  1 0500… Autaug…   21115     383 null    null      16585     363 null    null   
    ##  2 0500… Baldwi…   78622    1183 null    null      69544    1042 null    null   
    ##  3 0500… Barbou…    9186     280 null    null       4729     211 null    null   
    ##  4 0500… Bibb C…    6840     321 null    null       5588     346 null    null   
    ##  5 0500… Blount…   20600     396 null    null      20054     417 null    null   
    ##  6 0500… Bulloc…    3609     196 null    null        881     119 null    null   
    ##  7 0500… Butler…    6708     274 null    null       3821     173 null    null   
    ##  8 0500… Calhou…   45033     683 null    null      33820     559 null    null   
    ##  9 0500… Chambe…   13516     372 null    null       7953     296 null    null   
    ## 10 0500… Cherok…   10606     370 null    null       9953     356 null    null   
    ## # … with 3,210 more rows, 473 more variables:
    ## #   `Estimate!!Number!!HOUSEHOLD INCOME BY RACE AND HISPANIC OR LATINO ORIGIN OF HOUSEHOLDER!!Households!!One race--!!Black or African American` <dbl>,
    ## #   `Annotation of Estimate!!Number!!HOUSEHOLD INCOME BY RACE AND HISPANIC OR LATINO ORIGIN OF HOUSEHOLDER!!Households!!One race--!!Black or African American` <chr>,
    ## #   `Margin of Error!!Number MOE!!HOUSEHOLD INCOME BY RACE AND HISPANIC OR LATINO ORIGIN OF HOUSEHOLDER!!Households!!One race--!!Black or African American` <dbl>,
    ## #   `Annotation of Margin of Error!!Number MOE!!HOUSEHOLD INCOME BY RACE AND HISPANIC OR LATINO ORIGIN OF HOUSEHOLDER!!Households!!One race--!!Black or African American` <chr>,
    ## #   `Estimate!!Number!!HOUSEHOLD INCOME BY RACE AND HISPANIC OR LATINO ORIGIN OF HOUSEHOLDER!!Households!!One race--!!American Indian and Alaska Native` <dbl>,
    ## #   `Margin of Error!!Number MOE!!HOUSEHOLD INCOME BY RACE AND HISPANIC OR LATINO ORIGIN OF HOUSEHOLDER!!Households!!One race--!!American Indian and Alaska Native` <dbl>, …
…
